<?xml version="1.0" encoding="UTF-8"?>
<svg width="70px" height="24px" viewBox="0 0 70 24" version="1.1" xmlns="http://www.w3.org/2000/svg" xmlns:xlink="http://www.w3.org/1999/xlink">
    <!-- Generator: Sketch 51.3 (57544) - http://www.bohemiancoding.com/sketch -->
    <title>station-wagon copy</title>
    <desc>Created with Sketch.</desc>
    <defs></defs>
    <g id="Symbols" stroke="none" stroke-width="1" fill="none" fill-rule="evenodd">
        <g id="Browse_category_bar" transform="translate(-934.000000, -24.000000)" fill="#FFFFFF" fill-rule="nonzero">
            <g id="station-wagon-copy" transform="translate(934.771429, 24.600000)">
                <path d="M48.737232,17.8482429 C48.737232,20.7636788 51.101099,23.1275457 54.0165349,23.1275457 C56.9319708,23.1275457 59.2958377,20.7636788 59.2958377,17.8482429 C59.2958377,14.932807 56.9319708,12.56894 54.0165349,12.56894 C51.101099,12.56894 48.737232,14.932807 48.737232,17.8482429 Z M50.2474804,17.8482429 C50.2474804,15.7601604 51.941585,14.0660558 54.0296675,14.0660558 C56.1177499,14.0660558 57.8118546,15.7601604 57.8118546,17.8482429 C57.8118546,19.9363253 56.1046173,21.63043 54.0165349,21.63043 C51.9284524,21.63043 50.2474804,19.9363253 50.2474804,17.8482429 Z M6.96245015,17.8482429 C6.96245015,20.7636788 9.32631709,23.1275457 12.241753,23.1275457 C15.1571889,23.1275457 17.5210558,20.7636788 17.5210558,17.8482429 C17.5210558,14.932807 15.1571889,12.56894 12.241753,12.56894 C9.32631709,12.56894 6.96245015,14.932807 6.96245015,17.8482429 Z M8.47269847,17.8482429 C8.47269847,15.7601604 10.1668031,14.0660558 12.2548856,14.0660558 C14.342968,14.0660558 16.0370727,15.7601604 16.0370727,17.8482429 C16.0370727,19.9363253 14.342968,21.63043 12.2548856,21.63043 C10.1668031,21.63043 8.47269847,19.9363253 8.47269847,17.8482429 Z M0.159766396,17.9270384 C0.264827149,17.940171 0.39615309,17.9533036 0.461816061,18.005834 C0.698202755,18.3078837 0.711335349,18.7675245 0.84266129,19.0827067 C-0.378669963,20.0019883 2.95700894,20.1989772 2.95700894,20.1989772 L7.09377609,20.1989772 C6.76546124,19.4766845 6.58160492,18.6887289 6.58160492,17.8482429 C6.58160492,14.7226855 9.11619559,12.2012274 12.2286204,12.2012274 C15.3410452,12.2012274 17.8756359,14.7358181 17.8756359,17.8482429 C17.8756359,18.6887289 17.6917795,19.4766845 17.3634647,20.1989772 L48.8422928,20.1989772 C48.5139779,19.4766845 48.3301216,18.6887289 48.3301216,17.8482429 C48.3301216,14.7226855 50.8647123,12.2012274 53.9771371,12.2012274 C57.1026945,12.2012274 59.6241526,14.7358181 59.6241526,17.8482429 C59.6241526,18.6887289 59.4402962,19.4766845 59.1119814,20.1989772 L67.214792,20.1989772 C67.214792,20.1989772 68.3179299,18.49174 68.6068469,18.1240273 C69.0796203,17.5067954 69.1584159,16.5218509 69.1058855,15.4712433 C68.6987751,15.1691937 68.6593773,14.7752158 68.4492558,14.2761773 C68.2653995,13.8165365 67.9633498,13.3174979 67.8320239,12.8578571 C67.8451565,12.3456859 67.8188913,11.1637525 67.8320239,11.1243547 C67.9502172,10.5596531 68.2260017,9.62723894 68.0290128,8.89181367 C67.9370846,8.53723363 67.5299742,7.77554317 67.3329853,7.47349351 C67.1228638,7.15831125 66.6106926,6.40975339 66.5187645,6.31782523 C66.24298,6.12083631 66.0328585,5.7137259 65.822737,5.43794142 C65.3630962,4.8207095 64.8246598,4.20347757 64.3256213,3.62564343 C64.1023672,3.37612414 63.4457375,2.85082038 63.4063397,2.50937293 C63.2618811,2.28611883 63.3932071,1.34057206 63.4063397,1.05165498 C63.3669419,1.03852239 63.3275441,1.0253898 63.2881463,1.0122572 C63.0123618,0.828400885 62.5395885,0.854666073 62.1718758,0.815268291 C31.1658211,-1.90317869 22.3669831,3.04780929 22.3669831,3.04780929 C22.3669831,3.04780929 19.9768509,4.12468201 18.8999782,4.78131171 C18.4797352,5.0439636 18.0463596,5.17528954 17.6261166,5.43794142 C16.8381609,5.91071481 16.0502053,6.42288598 15.2753822,6.89565937 C14.8026088,7.19770903 14.1197139,7.39469794 13.7388687,7.77554317 C13.3842887,7.64421723 11.9397033,8.06446024 11.5457255,8.19578619 C10.9022284,8.31397953 8.22317919,9.03627221 8.31510734,9.01000702 C6.60787011,9.65350413 5.058224,10.0080842 3.61363865,10.9011006 C2.57616371,11.5314651 1.78820807,12.0699015 1.07904798,13.8296691 C0.987119826,14.0397906 1.00025242,14.4206358 0.882059073,14.6044921 C0.790130914,14.7489507 0.514346437,14.801481 0.422418279,14.9459396 C0.10723602,15.418713 -0.194813645,17.1390828 0.159766396,17.9270384 Z M49.1837402,7.22397422 C49.1837402,5.30661548 49.4201269,3.83576494 49.4201269,1.9052736 C49.9322981,1.89214101 51.1536294,2.02346695 51.0748338,2.02346695 C50.9960382,2.02346695 52.8083362,2.10226251 52.7295407,2.10226251 C53.4124355,2.25985364 54.2266564,2.22045586 54.8832861,2.3649144 C55.7106395,2.56190331 56.4985952,2.49624034 57.1946227,2.78515741 C58.2714954,3.2447982 59.3615007,4.20347757 60.2807823,4.86010728 C60.8586164,5.28035029 61.3707876,5.75312368 61.9354891,6.17336669 C62.132478,6.31782523 62.5527211,6.71180305 62.5527211,6.71180305 C62.5527211,6.71180305 58.0745065,6.8168638 49.1837402,7.22397422 Z M35.0793342,7.76241058 L35.6571683,1.74768247 C35.6571683,1.74768247 38.4544108,1.52442837 41.330449,1.53756097 C44.1408241,1.55069356 47.0431274,1.78708026 47.0431274,1.78708026 L46.70168,7.14517866 L35.0793342,7.76241058 Z M21.5133644,8.8392833 L21.7497511,5.17528954 C21.7497511,5.17528954 22.6559001,4.70251615 23.0236128,4.47926205 C23.7196402,4.05901904 24.6389218,3.71757159 25.4137449,3.40238933 C27.5806229,2.50937293 32.8073954,1.78708026 32.8073954,1.82647804 C32.8073954,1.86587582 31.9275116,7.99879727 31.9275116,7.99879727 L21.5133644,8.8392833 Z" id="Shape"></path>
            </g>
        </g>
    </g>
</svg>